code/simulation/qsim/demo.msim.vcd
$comment
	File created using the following command:
		vcd file demo.msim.vcd -direction
$end
$date
	Mon Jul 08 09:36:35 2024
$end
$version
	ModelSim Version 2020.1
$end
$timescale
	1ps
$end

$scope module demo_vhd_vec_tst $end
$var wire 1 ! A [7] $end
$var wire 1 " A [6] $end
$var wire 1 # A [5] $end
$var wire 1 $ A [4] $end
$var wire 1 % A [3] $end
$var wire 1 & A [2] $end
$var wire 1 ' A [1] $end
$var wire 1 ( A [0] $end
$var wire 1 ) b $end
$var wire 1 * clk $end
$var wire 1 + clkb $end
$var wire 1 , clkc $end
$var wire 1 - key $end

$scope module i1 $end
$var wire 1 . gnd $end
$var wire 1 / vcc $end
$var wire 1 0 unknown $end
$var wire 1 1 devoe $end
$var wire 1 2 devclrn $end
$var wire 1 3 devpor $end
$var wire 1 4 ww_devoe $end
$var wire 1 5 ww_devclrn $end
$var wire 1 6 ww_devpor $end
$var wire 1 7 ww_key $end
$var wire 1 8 ww_clk $end
$var wire 1 9 ww_clkb $end
$var wire 1 : ww_clkc $end
$var wire 1 ; ww_A [7] $end
$var wire 1 < ww_A [6] $end
$var wire 1 = ww_A [5] $end
$var wire 1 > ww_A [4] $end
$var wire 1 ? ww_A [3] $end
$var wire 1 @ ww_A [2] $end
$var wire 1 A ww_A [1] $end
$var wire 1 B ww_A [0] $end
$var wire 1 C ww_b $end
$var wire 1 D \clk~combout\ $end
$var wire 1 E \Add0~105_combout\ $end
$var wire 1 F \Add0~107\ $end
$var wire 1 G \Add0~107COUT1_177\ $end
$var wire 1 H \Add0~110_combout\ $end
$var wire 1 I \Add0~112\ $end
$var wire 1 J \Add0~112COUT1_178\ $end
$var wire 1 K \Add0~115_combout\ $end
$var wire 1 L \Add0~30_combout\ $end
$var wire 1 M \Add0~5_combout\ $end
$var wire 1 N \Add0~7\ $end
$var wire 1 O \Add0~10_combout\ $end
$var wire 1 P \Add0~12\ $end
$var wire 1 Q \Add0~12COUT1_161\ $end
$var wire 1 R \Add0~0_combout\ $end
$var wire 1 S \Add0~2\ $end
$var wire 1 T \Add0~2COUT1_162\ $end
$var wire 1 U \Add0~15_combout\ $end
$var wire 1 V \Add0~17\ $end
$var wire 1 W \Add0~17COUT1_163\ $end
$var wire 1 X \Add0~22\ $end
$var wire 1 Y \Add0~22COUT1_164\ $end
$var wire 1 Z \Add0~25_combout\ $end
$var wire 1 [ \Add0~32\ $end
$var wire 1 \ \Add0~32COUT1_165\ $end
$var wire 1 ] \Add0~35_combout\ $end
$var wire 1 ^ \Equal0~1\ $end
$var wire 1 _ \Equal0~0\ $end
$var wire 1 ` \Add0~55_combout\ $end
$var wire 1 a \Add0~37\ $end
$var wire 1 b \Add0~37COUT1_166\ $end
$var wire 1 c \Add0~40_combout\ $end
$var wire 1 d \Add0~42\ $end
$var wire 1 e \Add0~42COUT1_167\ $end
$var wire 1 f \Add0~45_combout\ $end
$var wire 1 g \Equal0~2\ $end
$var wire 1 h \Add0~57\ $end
$var wire 1 i \Add0~57COUT1_169\ $end
$var wire 1 j \Add0~60_combout\ $end
$var wire 1 k \Add0~62\ $end
$var wire 1 l \Add0~62COUT1_170\ $end
$var wire 1 m \Add0~65_combout\ $end
$var wire 1 n \Add0~67\ $end
$var wire 1 o \Add0~67COUT1_171\ $end
$var wire 1 p \Add0~70_combout\ $end
$var wire 1 q \Equal0~3\ $end
$var wire 1 r \Equal0~4_combout\ $end
$var wire 1 s \Add0~20_combout\ $end
$var wire 1 t \Add0~27\ $end
$var wire 1 u \Add0~47\ $end
$var wire 1 v \Add0~47COUT1_168\ $end
$var wire 1 w \Add0~50_combout\ $end
$var wire 1 x \Add0~52\ $end
$var wire 1 y \Add0~72\ $end
$var wire 1 z \Add0~72COUT1_172\ $end
$var wire 1 { \Add0~75_combout\ $end
$var wire 1 | \Add0~77\ $end
$var wire 1 } \Add0~80_combout\ $end
$var wire 1 ~ \Add0~82\ $end
$var wire 1 !! \Add0~82COUT1_173\ $end
$var wire 1 "! \Add0~85_combout\ $end
$var wire 1 #! \Add0~87\ $end
$var wire 1 $! \Add0~87COUT1_174\ $end
$var wire 1 %! \Add0~90_combout\ $end
$var wire 1 &! \Add0~92\ $end
$var wire 1 '! \Add0~92COUT1_175\ $end
$var wire 1 (! \Add0~95_combout\ $end
$var wire 1 )! \Add0~97\ $end
$var wire 1 *! \Add0~97COUT1_176\ $end
$var wire 1 +! \Add0~100_combout\ $end
$var wire 1 ,! \Add0~102\ $end
$var wire 1 -! \Add0~130_combout\ $end
$var wire 1 .! \Add0~132\ $end
$var wire 1 /! \Add0~132COUT1_181\ $end
$var wire 1 0! \Add0~135_combout\ $end
$var wire 1 1! \Add0~117\ $end
$var wire 1 2! \Add0~117COUT1_179\ $end
$var wire 1 3! \Add0~120_combout\ $end
$var wire 1 4! \Add0~122\ $end
$var wire 1 5! \Add0~122COUT1_180\ $end
$var wire 1 6! \Add0~125_combout\ $end
$var wire 1 7! \Add0~127\ $end
$var wire 1 8! \Add0~137\ $end
$var wire 1 9! \Add0~137COUT1_182\ $end
$var wire 1 :! \Add0~142COUT1_183\ $end
$var wire 1 ;! \Add0~147COUT1_184\ $end
$var wire 1 <! \Add0~152\ $end
$var wire 1 =! \Add0~155_combout\ $end
$var wire 1 >! \Add0~140_combout\ $end
$var wire 1 ?! \Add0~142\ $end
$var wire 1 @! \Add0~145_combout\ $end
$var wire 1 A! \Add0~147\ $end
$var wire 1 B! \Add0~150_combout\ $end
$var wire 1 C! \Equal0~8\ $end
$var wire 1 D! \Equal0~6\ $end
$var wire 1 E! \Equal0~5\ $end
$var wire 1 F! \Equal0~7\ $end
$var wire 1 G! \Equal0~9_combout\ $end
$var wire 1 H! \clkb~reg0_regout\ $end
$var wire 1 I! \key~combout\ $end
$var wire 1 J! \count2[0]~1\ $end
$var wire 1 K! \count2[1]~5\ $end
$var wire 1 L! \count2[1]~5COUT1_65\ $end
$var wire 1 M! \count2[2]~3\ $end
$var wire 1 N! \count2[2]~3COUT1_66\ $end
$var wire 1 O! \count2[3]~7\ $end
$var wire 1 P! \count2[3]~7COUT1_67\ $end
$var wire 1 Q! \count2[4]~9\ $end
$var wire 1 R! \count2[4]~9COUT1_68\ $end
$var wire 1 S! \count2[5]~11\ $end
$var wire 1 T! \count2[6]~13\ $end
$var wire 1 U! \count2[6]~13COUT1_69\ $end
$var wire 1 V! \count2[7]~15\ $end
$var wire 1 W! \count2[7]~15COUT1_70\ $end
$var wire 1 X! \count2[8]~17\ $end
$var wire 1 Y! \count2[8]~17COUT1_71\ $end
$var wire 1 Z! \count2[9]~19\ $end
$var wire 1 [! \count2[9]~19COUT1_72\ $end
$var wire 1 \! \count2[10]~21\ $end
$var wire 1 ]! \count2[11]~23\ $end
$var wire 1 ^! \count2[11]~23COUT1_73\ $end
$var wire 1 _! \count2[12]~25\ $end
$var wire 1 `! \count2[12]~25COUT1_74\ $end
$var wire 1 a! \count2[13]~27\ $end
$var wire 1 b! \count2[13]~27COUT1_75\ $end
$var wire 1 c! \count2[14]~29\ $end
$var wire 1 d! \count2[14]~29COUT1_76\ $end
$var wire 1 e! \count2[15]~31\ $end
$var wire 1 f! \count2[16]~33\ $end
$var wire 1 g! \count2[16]~33COUT1_77\ $end
$var wire 1 h! \count2[17]~35\ $end
$var wire 1 i! \count2[17]~35COUT1_78\ $end
$var wire 1 j! \count2[18]~45\ $end
$var wire 1 k! \count2[18]~45COUT1_79\ $end
$var wire 1 l! \count2[19]~47\ $end
$var wire 1 m! \count2[19]~47COUT1_80\ $end
$var wire 1 n! \count2[20]~37\ $end
$var wire 1 o! \count2[21]~39\ $end
$var wire 1 p! \count2[21]~39COUT1_81\ $end
$var wire 1 q! \count2[22]~41\ $end
$var wire 1 r! \count2[22]~41COUT1_82\ $end
$var wire 1 s! \count2[23]~43\ $end
$var wire 1 t! \count2[23]~43COUT1_83\ $end
$var wire 1 u! \count2[24]~49\ $end
$var wire 1 v! \count2[24]~49COUT1_84\ $end
$var wire 1 w! \count2[25]~51\ $end
$var wire 1 x! \count2[26]~53\ $end
$var wire 1 y! \count2[26]~53COUT1_85\ $end
$var wire 1 z! \count2[27]~55\ $end
$var wire 1 {! \count2[27]~55COUT1_86\ $end
$var wire 1 |! \count2[28]~57\ $end
$var wire 1 }! \count2[28]~57COUT1_87\ $end
$var wire 1 ~! \count2[29]~59\ $end
$var wire 1 !" \count2[29]~59COUT1_88\ $end
$var wire 1 "" \count2[30]~61\ $end
$var wire 1 #" \Equal1~9_combout\ $end
$var wire 1 $" \Equal1~8_combout\ $end
$var wire 1 %" \Equal1~6_combout\ $end
$var wire 1 &" \Equal1~5_combout\ $end
$var wire 1 '" \Equal1~7_combout\ $end
$var wire 1 (" \Equal1~0_combout\ $end
$var wire 1 )" \Equal1~3_combout\ $end
$var wire 1 *" \Equal1~1_combout\ $end
$var wire 1 +" \Equal1~2_combout\ $end
$var wire 1 ," \Equal1~4_combout\ $end
$var wire 1 -" \clkc~reg0_regout\ $end
$var wire 1 ." \s.s5~regout\ $end
$var wire 1 /" \s.s6~regout\ $end
$var wire 1 0" \s.s7~regout\ $end
$var wire 1 1" \s.s8~regout\ $end
$var wire 1 2" \s.s9~regout\ $end
$var wire 1 3" \s.s0~regout\ $end
$var wire 1 4" \s.s1~regout\ $end
$var wire 1 5" \s.s2~regout\ $end
$var wire 1 6" \s.s3~regout\ $end
$var wire 1 7" \s.s4~regout\ $end
$var wire 1 8" \A[0]~reg0_regout\ $end
$var wire 1 9" \A[1]~reg0_regout\ $end
$var wire 1 :" \A[2]~reg0_regout\ $end
$var wire 1 ;" \A[3]~reg0_regout\ $end
$var wire 1 <" \A[4]~reg0_regout\ $end
$var wire 1 =" \WideOr0~0\ $end
$var wire 1 >" \A[5]~reg0_regout\ $end
$var wire 1 ?" \A[6]~reg0_regout\ $end
$var wire 1 @" \b~reg0_regout\ $end
$var wire 1 A" count1 [31] $end
$var wire 1 B" count1 [30] $end
$var wire 1 C" count1 [29] $end
$var wire 1 D" count1 [28] $end
$var wire 1 E" count1 [27] $end
$var wire 1 F" count1 [26] $end
$var wire 1 G" count1 [25] $end
$var wire 1 H" count1 [24] $end
$var wire 1 I" count1 [23] $end
$var wire 1 J" count1 [22] $end
$var wire 1 K" count1 [21] $end
$var wire 1 L" count1 [20] $end
$var wire 1 M" count1 [19] $end
$var wire 1 N" count1 [18] $end
$var wire 1 O" count1 [17] $end
$var wire 1 P" count1 [16] $end
$var wire 1 Q" count1 [15] $end
$var wire 1 R" count1 [14] $end
$var wire 1 S" count1 [13] $end
$var wire 1 T" count1 [12] $end
$var wire 1 U" count1 [11] $end
$var wire 1 V" count1 [10] $end
$var wire 1 W" count1 [9] $end
$var wire 1 X" count1 [8] $end
$var wire 1 Y" count1 [7] $end
$var wire 1 Z" count1 [6] $end
$var wire 1 [" count1 [5] $end
$var wire 1 \" count1 [4] $end
$var wire 1 ]" count1 [3] $end
$var wire 1 ^" count1 [2] $end
$var wire 1 _" count1 [1] $end
$var wire 1 `" count1 [0] $end
$var wire 1 a" count2 [31] $end
$var wire 1 b" count2 [30] $end
$var wire 1 c" count2 [29] $end
$var wire 1 d" count2 [28] $end
$var wire 1 e" count2 [27] $end
$var wire 1 f" count2 [26] $end
$var wire 1 g" count2 [25] $end
$var wire 1 h" count2 [24] $end
$var wire 1 i" count2 [23] $end
$var wire 1 j" count2 [22] $end
$var wire 1 k" count2 [21] $end
$var wire 1 l" count2 [20] $end
$var wire 1 m" count2 [19] $end
$var wire 1 n" count2 [18] $end
$var wire 1 o" count2 [17] $end
$var wire 1 p" count2 [16] $end
$var wire 1 q" count2 [15] $end
$var wire 1 r" count2 [14] $end
$var wire 1 s" count2 [13] $end
$var wire 1 t" count2 [12] $end
$var wire 1 u" count2 [11] $end
$var wire 1 v" count2 [10] $end
$var wire 1 w" count2 [9] $end
$var wire 1 x" count2 [8] $end
$var wire 1 y" count2 [7] $end
$var wire 1 z" count2 [6] $end
$var wire 1 {" count2 [5] $end
$var wire 1 |" count2 [4] $end
$var wire 1 }" count2 [3] $end
$var wire 1 ~" count2 [2] $end
$var wire 1 !# count2 [1] $end
$var wire 1 "# count2 [0] $end
$var wire 1 ## \ALT_INV_clkc~reg0_regout\ $end
$var wire 1 $# \ALT_INV_key~combout\ $end
$upscope $end
$upscope $end
$enddefinitions $end
#0
$dumpvars
0)
0*
0+
0,
1-
0.
1/
x0
11
12
13
14
15
16
17
08
09
0:
0C
0D
0E
1F
1G
0H
0I
0J
0K
0L
1M
0N
0O
1P
1Q
0R
0S
0T
0U
1V
1W
0X
0Y
0Z
0[
0\
0]
0^
0_
0`
1a
1b
0c
0d
0e
0f
1g
1h
1i
0j
0k
0l
0m
1n
1o
0p
1q
0r
0s
1t
1u
1v
0w
0x
0y
0z
0{
1|
0}
0~
0!!
0"!
1#!
1$!
0%!
0&!
0'!
0(!
1)!
1*!
0+!
0,!
0-!
0.!
0/!
00!
11!
12!
03!
04!
05!
06!
17!
18!
19!
0:!
1;!
0<!
0=!
0>!
0?!
0@!
1A!
0B!
1C!
1D!
1E!
1F!
1G!
0H!
1I!
0J!
1K!
1L!
0M!
0N!
1O!
1P!
0Q!
0R!
1S!
0T!
0U!
1V!
1W!
0X!
0Y!
1Z!
1[!
0\!
1]!
1^!
0_!
0`!
1a!
1b!
0c!
0d!
1e!
0f!
0g!
1h!
1i!
0j!
0k!
1l!
1m!
0n!
1o!
1p!
0q!
0r!
1s!
1t!
0u!
0v!
1w!
0x!
0y!
1z!
1{!
0|!
0}!
1~!
1!"
0""
1#"
1$"
1%"
1&"
1'"
0("
1)"
1*"
1+"
0,"
0-"
0."
0/"
00"
01"
02"
03"
04"
05"
06"
07"
08"
09"
0:"
0;"
0<"
0="
0>"
0?"
0@"
1##
0$#
1;
0<
0=
0>
0?
0@
0A
0B
0A"
0B"
0C"
0D"
0E"
0F"
0G"
0H"
0I"
0J"
0K"
0L"
0M"
0N"
0O"
0P"
0Q"
0R"
0S"
0T"
0U"
0V"
0W"
0X"
0Y"
0Z"
0["
0\"
0]"
0^"
0_"
0`"
0a"
0b"
0c"
0d"
0e"
0f"
0g"
0h"
0i"
0j"
0k"
0l"
0m"
0n"
0o"
0p"
0q"
0r"
0s"
0t"
0u"
0v"
0w"
0x"
0y"
0z"
0{"
0|"
0}"
0~"
0!#
0"#
1!
0"
0#
0$
0%
0&
0'
0(
$end
#250000
1*
18
1D
1`"
0M
1N
1O
#500000
0*
08
0D
#750000
1*
18
1D
1_"
0`"
1M
0N
0O
0Q
1O
#1000000
0*
08
0D
#1250000
1*
18
1D
1`"
0M
1N
0O
1R
#1500000
0*
08
0D
#1750000
1*
18
1D
1^"
0_"
0`"
1M
0N
1O
1Q
1_
0R
1T
0O
1R
0T
#2000000
0*
08
0D
#2250000
1*
18
1D
1`"
0M
1N
0_
1O
#2500000
0*
08
0D
#2750000
1*
18
1D
1_"
0`"
1M
0N
0O
0Q
1O
1T
#3000000
0*
08
0D
#3250000
1*
18
1D
1`"
0M
1N
0O
0R
1U
#3500000
0*
08
0D
#3750000
1*
18
1D
1]"
0^"
0_"
0`"
1M
0N
1O
1Q
1R
0T
0U
0W
0O
0R
1U
1W
#4000000
0*
08
0D
#4250000
1*
18
1D
1`"
0M
1N
1O
#4500000
0*
08
0D
#4750000
1*
18
1D
1_"
0`"
1M
0N
0O
0Q
1O
#5000000
0*
08
0D
#5250000
1*
18
1D
1`"
0M
1N
0O
1R
#5500000
0*
08
0D
#5750000
1*
18
1D
1^"
0_"
0`"
1M
0N
1O
1Q
0R
1T
0O
1R
0T
0W
1W
#6000000
0*
08
0D
#6250000
1*
18
1D
1`"
0M
1N
1O
#6500000
0*
08
0D
#6750000
1*
18
1D
1_"
0`"
1M
0N
0O
0Q
1O
1T
0W
#7000000
0*
08
0D
#7250000
1*
18
1D
1`"
0M
1N
0O
0R
0U
1s
#7500000
0*
08
0D
#7750000
1*
18
1D
1\"
0]"
0^"
0_"
0`"
1M
0N
1O
1Q
1R
0T
1U
1W
0s
1Y
1^
0O
0R
0U
1s
0Y
#8000000
0*
08
0D
#8250000
1*
18
1D
1`"
0M
1N
1O
#8500000
0*
08
0D
#8750000
1*
18
1D
1_"
0`"
1M
0N
0O
0Q
1O
#9000000
0*
08
0D
#9250000
1*
18
1D
1`"
0M
1N
0O
1R
#9500000
0*
08
0D
#9750000
1*
18
1D
1^"
0_"
0`"
1M
0N
1O
1Q
1_
0R
1T
1r
0O
1R
0T
#10000000
0*
08
0D
#10250000
1*
18
1D
1H!
0\"
0^"
0_
0R
0s
0^
19
1+
0r
#10500000
0*
08
0D
#10750000
1*
18
1D
1`"
0M
1N
1O
#11000000
0*
08
0D
#11250000
1*
18
1D
1_"
0`"
1M
0N
0O
0Q
1O
#11500000
0*
08
0D
#11750000
1*
18
1D
1`"
0M
1N
0O
1R
#12000000
0*
08
0D
#12250000
1*
18
1D
1^"
0_"
0`"
1M
0N
1O
1Q
1_
0R
1T
0O
1R
0T
#12500000
0*
08
0D
#12750000
1*
18
1D
1`"
0M
1N
0_
1O
#13000000
0*
08
0D
#13250000
1*
18
1D
1_"
0`"
1M
0N
0O
0Q
1O
1T
#13500000
0*
08
0D
#13750000
1*
18
1D
1`"
0M
1N
0O
0R
1U
#14000000
0*
08
0D
#14250000
1*
18
1D
1]"
0^"
0_"
0`"
1M
0N
1O
1Q
1R
0T
0U
0W
0O
0R
1U
1W
#14500000
0*
08
0D
#14750000
1*
18
1D
1`"
0M
1N
1O
#15000000
0*
08
0D
#15250000
1*
18
1D
1_"
0`"
1M
0N
0O
0Q
1O
#15500000
0*
08
0D
#15750000
1*
18
1D
1`"
0M
1N
0O
1R
#16000000
0*
08
0D
#16250000
1*
18
1D
1^"
0_"
0`"
1M
0N
1O
1Q
0R
1T
0O
1R
0T
0W
1W
#16500000
0*
08
0D
#16750000
1*
18
1D
1`"
0M
1N
1O
#17000000
0*
08
0D
#17250000
1*
18
1D
1_"
0`"
1M
0N
0O
0Q
1O
1T
0W
#17280000
0-
07
0I!
1$#
#17500000
0*
08
0D
#17750000
1*
18
1D
1`"
0M
1N
0O
0R
0U
1s
#18000000
0*
08
0D
#18250000
1*
18
1D
1\"
0]"
0^"
0_"
0`"
1M
0N
1O
1Q
1R
0T
1U
1W
0s
1Y
1^
0O
0R
0U
1s
0Y
#18500000
0*
08
0D
#18750000
1*
18
1D
1`"
0M
1N
1O
#19000000
0*
08
0D
#19250000
1*
18
1D
1_"
0`"
1M
0N
0O
0Q
1O
#19500000
0*
08
0D
#19750000
1*
18
1D
1`"
0M
1N
0O
1R
#20000000
0*
08
0D
#20250000
1*
18
1D
1^"
0_"
0`"
1M
0N
1O
1Q
1_
0R
1T
1r
0O
1R
0T
#20500000
0*
08
0D
#20750000
1*
18
1D
0H!
0\"
0^"
0_
0R
0s
0^
09
0+
0r
#21000000
0*
08
0D
#21250000
1*
18
1D
1`"
0M
1N
1O
#21500000
0*
08
0D
#21750000
1*
18
1D
1_"
0`"
1M
0N
0O
0Q
1O
#22000000
0*
08
0D
#22250000
1*
18
1D
1`"
0M
1N
0O
1R
#22500000
0*
08
0D
#22750000
1*
18
1D
1^"
0_"
0`"
1M
0N
1O
1Q
1_
0R
1T
0O
1R
0T
#23000000
0*
08
0D
#23250000
1*
18
1D
1`"
0M
1N
0_
1O
#23500000
0*
08
0D
#23750000
1*
18
1D
1_"
0`"
1M
0N
0O
0Q
1O
1T
#24000000
0*
08
0D
#24250000
1*
18
1D
1`"
0M
1N
0O
0R
1U
#24500000
0*
08
0D
#24750000
1*
18
1D
1]"
0^"
0_"
0`"
1M
0N
1O
1Q
1R
0T
0U
0W
0O
0R
1U
1W
#25000000
0*
08
0D
#25250000
1*
18
1D
1`"
0M
1N
1O
#25500000
0*
08
0D
#25750000
1*
18
1D
1_"
0`"
1M
0N
0O
0Q
1O
#26000000
0*
08
0D
#26250000
1*
18
1D
1`"
0M
1N
0O
1R
#26500000
0*
08
0D
#26750000
1*
18
1D
1^"
0_"
0`"
1M
0N
1O
1Q
0R
1T
0O
1R
0T
0W
1W
#27000000
0*
08
0D
#27250000
1*
18
1D
1`"
0M
1N
1O
#27500000
0*
08
0D
#27750000
1*
18
1D
1_"
0`"
1M
0N
0O
0Q
1O
1T
0W
#28000000
0*
08
0D
#28250000
1*
18
1D
1`"
0M
1N
0O
0R
0U
1s
#28500000
0*
08
0D
#28750000
1*
18
1D
1\"
0]"
0^"
0_"
0`"
1M
0N
1O
1Q
1R
0T
1U
1W
0s
1Y
1^
0O
0R
0U
1s
0Y
#29000000
0*
08
0D
#29250000
1*
18
1D
1`"
0M
1N
1O
#29500000
0*
08
0D
#29750000
1*
18
1D
1_"
0`"
1M
0N
0O
0Q
1O
#30000000
0*
08
0D
#30250000
1*
18
1D
1`"
0M
1N
0O
1R
#30500000
0*
08
0D
#30750000
1*
18
1D
1^"
0_"
0`"
1M
0N
1O
1Q
1_
0R
1T
1r
0O
1R
0T
#31000000
0*
08
0D
#31250000
1*
18
1D
1H!
0\"
0^"
0_
0R
0s
0^
19
1-"
1"#
0##
1+
1J!
1:
0r
1,
#31500000
0*
08
0D
#31750000
1*
18
1D
1`"
0M
1N
1O
#32000000
0*
08
0D
#32250000
1*
18
1D
1_"
0`"
1M
0N
0O
0Q
1O
#32500000
0*
08
0D
#32750000
1*
18
1D
1`"
0M
1N
0O
1R
#33000000
0*
08
0D
#33250000
1*
18
1D
1^"
0_"
0`"
1M
0N
1O
1Q
1_
0R
1T
0O
1R
0T
#33500000
0*
08
0D
#33750000
1*
18
1D
1`"
0M
1N
0_
1O
#34000000
0*
08
0D
#34250000
1*
18
1D
1_"
0`"
1M
0N
0O
0Q
1O
1T
#34500000
0*
08
0D
#34750000
1*
18
1D
1`"
0M
1N
0O
0R
1U
#35000000
0*
08
0D
#35250000
1*
18
1D
1]"
0^"
0_"
0`"
1M
0N
1O
1Q
1R
0T
0U
0W
0O
0R
1U
1W
#35500000
0*
08
0D
#35750000
1*
18
1D
1`"
0M
1N
1O
#36000000
0*
08
0D
#36250000
1*
18
1D
1_"
0`"
1M
0N
0O
0Q
1O
#36500000
0*
08
0D
#36750000
1*
18
1D
1`"
0M
1N
0O
1R
#37000000
0*
08
0D
#37250000
1*
18
1D
1^"
0_"
0`"
1M
0N
1O
1Q
0R
1T
0O
1R
0T
0W
1W
#37500000
0*
08
0D
#37750000
1*
18
1D
1`"
0M
1N
1O
#37760000
1-
17
1I!
0$#
#38000000
0*
08
0D
#38250000
1*
18
1D
1_"
0`"
1M
0N
0O
0Q
1O
1T
0W
#38500000
0*
08
0D
#38750000
1*
18
1D
1`"
0M
1N
0O
0R
0U
1s
#39000000
0*
08
0D
#39250000
1*
18
1D
1\"
0]"
0^"
0_"
0`"
1M
0N
1O
1Q
1R
0T
1U
1W
0s
1Y
1^
0O
0R
0U
1s
0Y
#39500000
0*
08
0D
#39750000
1*
18
1D
1`"
0M
1N
1O
#40000000
0*
08
0D
#40250000
1*
18
1D
1_"
0`"
1M
0N
0O
0Q
1O
#40500000
0*
08
0D
#40750000
1*
18
1D
1`"
0M
1N
0O
1R
#41000000
0*
08
0D
#41250000
1*
18
1D
1^"
0_"
0`"
1M
0N
1O
1Q
1_
0R
1T
1r
0O
1R
0T
#41500000
0*
08
0D
#41750000
1*
18
1D
0H!
0\"
0^"
0_
0R
0s
0^
09
0+
0r
#42000000
0*
08
0D
#42250000
1*
18
1D
1`"
0M
1N
1O
#42500000
0*
08
0D
#42750000
1*
18
1D
1_"
0`"
1M
0N
0O
0Q
1O
#43000000
0*
08
0D
#43250000
1*
18
1D
1`"
0M
1N
0O
1R
#43500000
0*
08
0D
#43750000
1*
18
1D
1^"
0_"
0`"
1M
0N
1O
1Q
1_
0R
1T
0O
1R
0T
#44000000
0*
08
0D
#44250000
1*
18
1D
1`"
0M
1N
0_
1O
#44500000
0*
08
0D
#44750000
1*
18
1D
1_"
0`"
1M
0N
0O
0Q
1O
1T
#45000000
0*
08
0D
#45250000
1*
18
1D
1`"
0M
1N
0O
0R
1U
#45500000
0*
08
0D
#45750000
1*
18
1D
1]"
0^"
0_"
0`"
1M
0N
1O
1Q
1R
0T
0U
0W
0O
0R
1U
1W
#46000000
0*
08
0D
#46250000
1*
18
1D
1`"
0M
1N
1O
#46500000
0*
08
0D
#46750000
1*
18
1D
1_"
0`"
1M
0N
0O
0Q
1O
#47000000
0*
08
0D
#47250000
1*
18
1D
1`"
0M
1N
0O
1R
#47500000
0*
08
0D
#47750000
1*
18
1D
1^"
0_"
0`"
1M
0N
1O
1Q
0R
1T
0O
1R
0T
0W
1W
#48000000
0*
08
0D
#48250000
1*
18
1D
1`"
0M
1N
1O
#48500000
0*
08
0D
#48750000
1*
18
1D
1_"
0`"
1M
0N
0O
0Q
1O
1T
0W
#49000000
0*
08
0D
#49250000
1*
18
1D
1`"
0M
1N
0O
0R
0U
1s
#49500000
0*
08
0D
#49750000
1*
18
1D
1\"
0]"
0^"
0_"
0`"
1M
0N
1O
1Q
1R
0T
1U
1W
0s
1Y
1^
0O
0R
0U
1s
0Y
#50000000
0*
08
0D
#50250000
1*
18
1D
1`"
0M
1N
1O
#50500000
0*
08
0D
#50750000
1*
18
1D
1_"
0`"
1M
0N
0O
0Q
1O
#51000000
0*
08
0D
#51250000
1*
18
1D
1`"
0M
1N
0O
1R
#51500000
0*
08
0D
#51750000
1*
18
1D
1^"
0_"
0`"
1M
0N
1O
1Q
1_
0R
1T
1r
0O
1R
0T
#52000000
0*
08
0D
#52250000
1*
18
1D
1H!
0\"
0^"
0_
0R
0s
0^
19
0"#
1+
0J!
0r
#52500000
0*
08
0D
#52750000
1*
18
1D
1`"
0M
1N
1O
#53000000
0*
08
0D
#53250000
1*
18
1D
1_"
0`"
1M
0N
0O
0Q
1O
#53500000
0*
08
0D
#53750000
1*
18
1D
1`"
0M
1N
0O
1R
#54000000
0*
08
0D
#54250000
1*
18
1D
1^"
0_"
0`"
1M
0N
1O
1Q
1_
0R
1T
0O
1R
0T
#54500000
0*
08
0D
#54750000
1*
18
1D
1`"
0M
1N
0_
1O
#55000000
0*
08
0D
#55040000
0-
07
0I!
1$#
#55250000
1*
18
1D
1_"
0`"
1M
0N
0O
0Q
1O
1T
#55500000
0*
08
0D
#55750000
1*
18
1D
1`"
0M
1N
0O
0R
1U
#56000000
0*
08
0D
#56250000
1*
18
1D
1]"
0^"
0_"
0`"
1M
0N
1O
1Q
1R
0T
0U
0W
0O
0R
1U
1W
#56500000
0*
08
0D
#56750000
1*
18
1D
1`"
0M
1N
1O
#57000000
0*
08
0D
#57250000
1*
18
1D
1_"
0`"
1M
0N
0O
0Q
1O
#57500000
0*
08
0D
#57750000
1*
18
1D
1`"
0M
1N
0O
1R
#58000000
0*
08
0D
#58250000
1*
18
1D
1^"
0_"
0`"
1M
0N
1O
1Q
0R
1T
0O
1R
0T
0W
1W
#58500000
0*
08
0D
#58750000
1*
18
1D
1`"
0M
1N
1O
#59000000
0*
08
0D
#59250000
1*
18
1D
1_"
0`"
1M
0N
0O
0Q
1O
1T
0W
#59500000
0*
08
0D
#59750000
1*
18
1D
1`"
0M
1N
0O
0R
0U
1s
#60000000
0*
08
0D
#60250000
1*
18
1D
1\"
0]"
0^"
0_"
0`"
1M
0N
1O
1Q
1R
0T
1U
1W
0s
1Y
1^
0O
0R
0U
1s
0Y
#60500000
0*
08
0D
#60750000
1*
18
1D
1`"
0M
1N
1O
#61000000
0*
08
0D
#61250000
1*
18
1D
1_"
0`"
1M
0N
0O
0Q
1O
#61500000
0*
08
0D
#61750000
1*
18
1D
1`"
0M
1N
0O
1R
#62000000
0*
08
0D
#62250000
1*
18
1D
1^"
0_"
0`"
1M
0N
1O
1Q
1_
0R
1T
1r
0O
1R
0T
#62500000
0*
08
0D
#62750000
1*
18
1D
0H!
0\"
0^"
0_
0R
0s
0^
09
0+
0r
#63000000
0*
08
0D
#63250000
1*
18
1D
1`"
0M
1N
1O
#63500000
0*
08
0D
#63750000
1*
18
1D
1_"
0`"
1M
0N
0O
0Q
1O
#64000000
0*
08
0D
#64250000
1*
18
1D
1`"
0M
1N
0O
1R
#64500000
0*
08
0D
#64750000
1*
18
1D
1^"
0_"
0`"
1M
0N
1O
1Q
1_
0R
1T
0O
1R
0T
#65000000
0*
08
0D
#65250000
1*
18
1D
1`"
0M
1N
0_
1O
#65500000
0*
08
0D
#65750000
1*
18
1D
1_"
0`"
1M
0N
0O
0Q
1O
1T
#66000000
0*
08
0D
#66250000
1*
18
1D
1`"
0M
1N
0O
0R
1U
#66500000
0*
08
0D
#66750000
1*
18
1D
1]"
0^"
0_"
0`"
1M
0N
1O
1Q
1R
0T
0U
0W
0O
0R
1U
1W
#67000000
0*
08
0D
#67250000
1*
18
1D
1`"
0M
1N
1O
#67500000
0*
08
0D
#67750000
1*
18
1D
1_"
0`"
1M
0N
0O
0Q
1O
#68000000
0*
08
0D
#68250000
1*
18
1D
1`"
0M
1N
0O
1R
#68500000
0*
08
0D
#68750000
1*
18
1D
1^"
0_"
0`"
1M
0N
1O
1Q
0R
1T
0O
1R
0T
0W
1W
#69000000
0*
08
0D
#69250000
1*
18
1D
1`"
0M
1N
1O
#69500000
0*
08
0D
#69750000
1*
18
1D
1_"
0`"
1M
0N
0O
0Q
1O
1T
0W
#70000000
0*
08
0D
#70250000
1*
18
1D
1`"
0M
1N
0O
0R
0U
1s
#70500000
0*
08
0D
#70750000
1*
18
1D
1\"
0]"
0^"
0_"
0`"
1M
0N
1O
1Q
1R
0T
1U
1W
0s
1Y
1^
0O
0R
0U
1s
0Y
#71000000
0*
08
0D
#71250000
1*
18
1D
1`"
0M
1N
1O
#71500000
0*
08
0D
